// Jest Snapshot v1, https://goo.gl/fbAQLP

exports[`<VariablesTableConnected/>  -- CONNECTED COMPONENT --- REACT-REDUX (Mount + wrapping in <Provider>) +++ render the DUMB component correctly 1`] = `ReactWrapper {}`;
